{
    "$schema": "http://json-schema.org/draft-04/schema#",
    "id": "http://bubbles-company.com/dmp/collector-custom-schema.json",
    "properties": {
        "application": {
            "properties": {
                "action": {
                    "properties": {
                        "description": {
                            "type": "string"
                        },
                        "id": {
                            "type": "string"
                        },
                        "name": {
                            "type": "string",
                            "enum": [
                                "view",
                                "click",
                                "navigate",
                                "press",
                                "play",
                                "read",
                                "comment",
                                "like",
                                "share",
                                "win",
                                "lost"
                            ]
                        },
                        "root": {
                            "type": "string"
                        }
                    },
                    "required": [
                        "id",
                        "name"
                    ],
                    "type": "object"
                },
                "value": {
                    // Define an object for value if you need to pass specific element to event (ex: cart value, number of share, sharing social network, etc ...)
                    "type": "object"
                }
            },
            "required": [
                "action"
            ],
            "type": "object"
        },
        "client": {
            "properties": {
                "venue": {
                    "properties": {
                        "city": {
                            "type": "string"
                        },
                        "country": {
                            "type": "string"
                        },
                        "name": {
                            "type": "string"
                        },
                        "street": {
                            "type": "string"
                        },
                        "zipcode": {
                            "type": "string"
                        }
                    },
                    "required": [
                        "name"
                    ],
                    "type": "object"
                },
                "company": {
                    "type": "string"
                },
                "id": {
                    "type": "string"
                }
            },
            "required": [
                "venue",
                "id"
            ],
            "type": "object"
        },
        "tracker": {
            "properties": {
                "app-name": {
                    "type": "string"
                },
                "id": {
                    "type": "string"
                },
                "shard-id": {
                    "type": "string"
                },
                "timestamp": {
                    "type": "integer"
                }
            },
            "required": [
                "timestamp",
                "id"
            ],
            "type": "object"
        },
        "user": {
            "properties": {
                "id": {
                    "type": "string"
                },
                "plateform": {
                    "properties": {
                        "os": {
                            "type": "string"
                        },
                        "producer": {
                            "type": "string"
                        },
                        "resolution": {
                            "type": "string"
                        },
                        "udi": {
                            "type": "string"
                        }
                    },
                    "type": "object"
                },
                "returning": {
                    "type": "boolean"
                }
            },
            "required": [
                "id"
            ],
            "type": "object"
        }
    },
    "required": [
        "application",
        "tracker"
    ],
    "type": "object"
}